Decoding/waveform.vcd
$date
	Sun May  5 12:18:03 2024
$end
$version
	Icarus Verilog
$end
$timescale
	1ps
$end
$scope module decoder_tb $end
$var wire 1 ! wt $end
$var wire 1 " id $end
$var wire 1 # finish $end
$var wire 1 $ dn $end
$var wire 8 % dat_out [7:0] $end
$var parameter 32 & CLK_PERIOD $end
$var reg 1 ' clk $end
$var reg 8 ( dat_in [7:0] $end
$var reg 32 ) fdata_in [31:0] $end
$var reg 32 * fdata_out [31:0] $end
$var reg 1 + rd $end
$var reg 1 , sent $end
$var integer 32 - i [31:0] $end
$var integer 32 . status [31:0] $end
$scope module dec $end
$var wire 1 ' clk $end
$var wire 8 / dat_in [7:0] $end
$var wire 1 + rd $end
$var wire 1 , sent $end
$var parameter 2 0 IDLE $end
$var parameter 2 1 PROCESS $end
$var parameter 2 2 READ $end
$var parameter 2 3 SEND $end
$var reg 8 4 dat_out [7:0] $end
$var reg 1 $ dn $end
$var reg 8 5 done_bytes [7:0] $end
$var reg 8 6 ext [7:0] $end
$var reg 1 # finish $end
$var reg 1 " id $end
$var reg 8 7 num_bytes [7:0] $end
$var reg 2 8 state [1:0] $end
$var reg 8 9 tail [7:0] $end
$var reg 1 ! wt $end
$upscope $end
$upscope $end
$enddefinitions $end
$comment Show the parameter values. $end
$dumpall
b11 3
b1 2
b10 1
b0 0
b1010 &
$end
#0
$dumpvars
b0 9
bx 8
b10 7
bx 6
b0 5
bx 4
bx /
b0 .
b0 -
x,
x+
bx *
b10000000000000000000000000000011 )
bx (
x'
bx %
0$
0#
0"
x!
$end
#10000
0'
b10000000000000000000000000000100 *
#15000
b0 8
b1 -
b1 .
b10000001 (
b10000001 /
1+
0,
1'
#20000
0'
#25000
b1 8
0!
1'
#30000
0'
#35000
0+
1!
b1 9
1'
#40000
0'
#45000
1+
b10 -
0!
1'
b0 8
#50000
0'
#55000
b1 8
1'
#60000
0'
#65000
0+
1!
b10 9
1'
#70000
0'
#75000
1+
b11 -
0!
1'
b0 8
#80000
0'
#85000
b1 8
1'
#90000
0'
#95000
0+
1!
b11 9
1'
#100000
0'
#105000
1+
b100 -
b10000000 (
b10000000 /
0!
1'
b0 8
#110000
0'
#115000
b1 8
1'
#120000
0'
#125000
0+
1!
b100 9
1'
#130000
0'
#135000
b10101 6
1"
1'
b11 8
#140000
0'
#145000
1$
b1 5
b0 9
b10101 %
b10101 4
1'
#150000
0'
#155000
1,
1'
b0 8
#160000
0'
#165000
1+
b101 -
b1 (
b1 /
0,
0!
0"
0$
1'
#170000
0'
#175000
b1 8
1'
#180000
0'
#185000
0+
1!
b1 9
1'
#190000
0'
#195000
1+
b110 -
b10 (
b10 /
0!
1'
b0 8
#200000
0'
#205000
b1 8
1'
#210000
0'
#215000
0+
1!
b10 9
1'
#220000
0'
#225000
1+
b111 -
b11 (
b11 /
0!
1'
b0 8
#230000
0'
#235000
b1 8
1'
#240000
0'
#245000
0+
1!
b11 9
1'
#250000
0'
#255000
1+
b1000 -
b100 (
b100 /
0!
1'
b0 8
#260000
0'
#265000
b1 8
1'
#270000
0'
#275000
0+
1!
b100 9
1'
#280000
0'
#285000
b111001 6
1"
1'
b11 8
#290000
0'
#295000
1$
b10 5
b0 9
b111001 %
b111001 4
1'
#300000
0'
#305000
1#
1,
1'
#310000
0'
#315000
b11 5
1$
1'
